vsim/transcript
# //  ModelSim SE 10.2c Jul 18 2013 Linux 3.13.0-24-generic
# //
# //  Copyright 1991-2013 Mentor Graphics Corporation
# //  All Rights Reserved.
# //
# //  THIS WORK CONTAINS TRADE SECRET AND PROPRIETARY INFORMATION
# //  WHICH IS THE PROPERTY OF MENTOR GRAPHICS CORPORATION OR ITS
# //  LICENSORS AND IS SUBJECT TO LICENSE TERMS.
# //
# vsim -do wave.do -voptargs=+acc work.test_counter 
# Loading work.test_counter(fast)
# Loading work.counter(fast)
# do wave.do 
#          0 0 0    x
#          5 1 0    x
#          8 1 0    0
#          9 0 0    0
#         10 0 1    0
#         12 0 1    1
#         20 0 0    1
#         30 0 1    1
#         32 0 1    2
#         40 0 0    2
#         50 0 1    2
#         52 0 1    3
#         60 0 0    3
#         70 0 1    3
#         72 0 1    4
#         80 0 0    4
#         90 0 1    4
#         92 0 1    5
